{
  :stopped_at => 4162,
    :seed => 100,
    :recorded_at => "Sat Aug 17 21:21:17 2019",
    :input_history => {
                      :key_down_raw => {
                                         32 => {
                                                 0 => {
                                                        2 => [[1, 43], [3, 63], [5, 86], [7, 113], [9, 142], [11, 157], [13, 171], [15, 183], [17, 205], [19, 231], [21, 258], [46, 565], [48, 597], [50, 635], [78, 1029], [109, 1273], [116, 1372], [205, 2399], [249, 3033], [328, 3740], [360, 3889]]
                                                      }
                                               },
                                           1073741903 => {
                                                         0 => {
                                                                2 => [[23, 287], [73, 959], [90, 1138], [182, 2073], [215, 2534], [252, 3092], [254, 3122], [255, 3127], [256, 3132], [272, 3219], [308, 3527], [319, 3636], [320, 3666], [321, 3671], [322, 3676], [323, 3681], [324, 3686], [367, 3952]]
                                                              }
                                                       },
                                           1073741906 => {
                                                         0 => {
                                                                2 => [[24, 299], [25, 329], [26, 334], [27, 339], [28, 344], [29, 349], [30, 354], [34, 403], [86, 1105], [112, 1332], [113, 1362], [114, 1367], [115, 1372], [151, 1783], [152, 1813], [153, 1818], [154, 1823], [155, 1827], [156, 1833], [157, 1838], [158, 1843], [159, 1848], [170, 1989], [171, 2019], [172, 2024], [173, 2029], [174, 2033], [175, 2039], [176, 2044], [177, 2049], [178, 2054], [179, 2059], [180, 2064], [181, 2069], [199, 2248], [200, 2278], [201, 2283], [202, 2288], [203, 2293], [209, 2472], [229, 2704], [233, 2806], [237, 2873], [241, 2974], [257, 3136], [292, 3414], [309, 3548], [310, 3578], [311, 3583], [312, 3588], [313, 3592], [314, 3599], [316, 3604], [363, 3904], [364, 3934], [365, 3939], [382, 4034], [383, 4064], [385, 4069], [386, 4074]]
                                                              }
                                                       },
                                           1073741905 => {
                                                         0 => {
                                                                2 => [[32, 391], [52, 661], [61, 810], [67, 894], [68, 924], [71, 949], [88, 1128], [161, 1862], [162, 1892], [163, 1897], [164, 1902], [166, 1939], [167, 1969], [168, 1974], [185, 2091], [186, 2119], [187, 2124], [188, 2130], [189, 2135], [190, 2140], [191, 2145], [192, 2150], [193, 2155], [194, 2160], [195, 2165], [196, 2170], [197, 2175], [207, 2438], [217, 2558], [251, 3077], [275, 3266], [368, 3958]]
                                                              }
                                                       },
                                           1073741904 => {
                                                         0 => {
                                                                2 => [[36, 413], [37, 443], [38, 448], [39, 453], [40, 458], [41, 463], [42, 468], [43, 473], [53, 688], [54, 718], [62, 823], [69, 929], [80, 1051], [81, 1081], [82, 1086], [83, 1091], [84, 1096], [85, 1101], [92, 1163], [111, 1318], [119, 1394], [121, 1424], [122, 1429], [123, 1434], [124, 1439], [150, 1756], [211, 2491], [212, 2521], [213, 2526], [214, 2531], [224, 2660], [286, 3363], [317, 3607], [326, 3690], [370, 3976], [381, 4028]]
                                                              }
                                                       },
                                           93 => {
                                                 0 => {
                                                        2 => [[57, 738], [59, 785], [128, 1480], [130, 1511]]
                                                      }
                                               },
                                           122 => {
                                                  0 => {
                                                         2 => [[65, 852], [76, 983], [95, 1184], [97, 1206], [99, 1217], [101, 1225], [103, 1234], [105, 1243], [107, 1252], [132, 1528], [134, 1539], [136, 1557], [138, 1565], [140, 1573], [142, 1583], [219, 2560], [222, 2616], [227, 2675], [231, 2724], [234, 2815], [239, 2885], [243, 2980], [244, 3004], [245, 3010], [246, 3015], [247, 3020], [260, 3147], [262, 3158], [264, 3168], [266, 3179], [268, 3189], [270, 3199], [273, 3244], [276, 3294], [279, 3333], [282, 3346], [284, 3356], [288, 3381], [290, 3407], [293, 3427], [295, 3443], [297, 3467], [299, 3476], [302, 3489], [304, 3500], [306, 3517], [330, 3751], [332, 3762], [334, 3771], [336, 3779], [338, 3788], [340, 3797], [342, 3806], [344, 3814], [346, 3822], [348, 3832], [350, 3840], [352, 3848], [354, 3857], [356, 3866], [359, 3888], [372, 3987], [375, 4000], [377, 4011], [379, 4018], [387, 4076], [390, 4091], [392, 4100], [394, 4109], [396, 4117], [398, 4128]]
                                                       }
                                                },
                                           13 => {
                                                 0 => {
                                                        2 => [[126, 1464]]
                                                      }
                                               },
                                           44 => {
                                                 0 => {
                                                        2 => [[144, 1678]]
                                                      }
                                               },
                                           109 => {
                                                  0 => {
                                                         2 => [[146, 1698], [148, 1736]]
                                                       }
                                                },
                                           1073742051 => {
                                                         1024 => {
                                                                   2 => [[400, 4153]]
                                                                 }
                                                       },
                                           113 => {
                                                  1024 => {
                                                            2 => [[401, 4161]]
                                                          }
                                                }
                                       },
                        :key_up_raw => {
                                       32 => {
                                               0 => {
                                                      2 => [[2, 49], [4, 71], [6, 91], [8, 114], [10, 148], [12, 163], [14, 174], [16, 189], [18, 213], [20, 238], [22, 265], [47, 571], [49, 605], [51, 643], [79, 1035], [110, 1279], [117, 1377], [206, 2405], [250, 3040], [329, 3745], [362, 3897]]
                                                    }
                                             },
                                         1073741906 => {
                                                       0 => {
                                                              2 => [[31, 358], [45, 547], [87, 1115], [120, 1411], [160, 1852], [184, 2080], [204, 2294], [218, 2558], [230, 2723], [235, 2824], [238, 2885], [242, 2978], [259, 3143], [300, 3480], [358, 3879], [366, 3943], [389, 4084]]
                                                            }
                                                     },
                                         1073741905 => {
                                                       0 => {
                                                              2 => [[33, 395], [56, 720], [63, 848], [70, 942], [74, 964], [93, 1174], [165, 1907], [169, 1978], [198, 2178], [208, 2460], [225, 2662], [253, 3099], [280, 3340], [371, 3982]]
                                                            }
                                                     },
                                         1073741903 => {
                                                       0 => {
                                                              2 => [[35, 404], [75, 974], [91, 1157], [210, 2481], [221, 2581], [258, 3139], [277, 3300], [315, 3604], [325, 3690], [369, 3962]]
                                                            }
                                                     },
                                         1073741904 => {
                                                       0 => {
                                                              2 => [[44, 478], [55, 718], [64, 851], [72, 952], [89, 1133], [94, 1178], [118, 1384], [125, 1441], [183, 2073], [216, 2534], [226, 2673], [287, 3381], [318, 3635], [327, 3699], [373, 3991], [384, 4065]]
                                                            }
                                                     },
                                         93 => {
                                               0 => {
                                                      2 => [[58, 743], [60, 789], [129, 1487], [131, 1515]]
                                                    }
                                             },
                                         122 => {
                                                0 => {
                                                       2 => [[66, 859], [77, 989], [96, 1188], [98, 1209], [100, 1219], [102, 1228], [104, 1238], [106, 1246], [108, 1256], [133, 1533], [135, 1542], [137, 1560], [139, 1569], [141, 1577], [143, 1589], [220, 2570], [223, 2625], [228, 2689], [232, 2733], [236, 2831], [240, 2910], [248, 3025], [261, 3152], [263, 3163], [265, 3173], [267, 3183], [269, 3194], [271, 3203], [274, 3257], [278, 3304], [281, 3340], [283, 3351], [285, 3359], [289, 3388], [291, 3413], [294, 3433], [296, 3445], [298, 3469], [301, 3482], [303, 3493], [305, 3505], [307, 3522], [331, 3756], [333, 3765], [335, 3775], [337, 3784], [339, 3791], [341, 3801], [343, 3809], [345, 3818], [347, 3826], [349, 3834], [351, 3844], [353, 3853], [355, 3861], [357, 3870], [361, 3891], [374, 3993], [376, 4004], [378, 4014], [380, 4023], [388, 4083], [391, 4095], [393, 4104], [395, 4113], [397, 4123], [399, 4136]]
                                                     }
                                              },
                                         13 => {
                                               0 => {
                                                      2 => [[127, 1467]]
                                                    }
                                             },
                                         44 => {
                                               0 => {
                                                      2 => [[145, 1685]]
                                                    }
                                             },
                                         109 => {
                                                0 => {
                                                       2 => [[147, 1704], [149, 1740]]
                                                     }
                                              }
                                     }
                    }
}